u: I wanto to schedule a meeting tomorrow morning with my friend Mateus
s: Não entendi, tente dizer mais sobre o seu compromisso
u: Quero marcar uma reuniao amanha de manha
s: Não entendi, tente dizer mais sobre o seu compromisso
u: 
